{
   "skins":[
      {
         "localization_name":"<skin_name>",
         "geometry":"geometry.humanoid.custom",
         "texture":"<skin_png_file>",
         "type":"free"
      }
   ],

   "serialize_name":"<skin_pack_name>",
   "localization_name":"<skin_pack_name>"
}